<?xml version="1.0" encoding="UTF-8" standalone="no"?>
<!DOCTYPE svg PUBLIC "-//W3C//DTD SVG 1.1//EN" "http://www.w3.org/Graphics/SVG/1.1/DTD/svg11.dtd">
<!-- 由 Microsoft Visio, SVG Export 生成 汉诺塔 3-1.svg 页-1 -->
<svg xmlns="http://www.w3.org/2000/svg" xmlns:xlink="http://www.w3.org/1999/xlink" xmlns:ev="http://www.w3.org/2001/xml-events"
		width="24.223in" height="16.4091in" viewBox="0 0 1744.06 1181.46" xml:space="preserve" color-interpolation-filters="sRGB"
		class="st8">
	<style type="text/css">
	<![CDATA[
		.st1 {fill:#923931;stroke:#000000;stroke-linecap:round;stroke-linejoin:round;stroke-width:0.75}
		.st2 {fill:#f59d56;stroke:#000000;stroke-linecap:round;stroke-linejoin:round;stroke-width:0.75}
		.st3 {fill:none;stroke:none;stroke-linecap:round;stroke-linejoin:round;stroke-width:0.75}
		.st4 {fill:#ffc000;font-family:Calibri;font-size:4.00001em}
		.st5 {fill:url(#grad0-22);stroke:#000000;stroke-linecap:round;stroke-linejoin:round;stroke-width:0.75}
		.st6 {fill:none;stroke:#00ffff;stroke-linecap:round;stroke-linejoin:round;stroke-width:2.25}
		.st7 {fill:#d9958f;font-family:等线;font-size:1.99999em;font-weight:bold}
		.st8 {fill:none;fill-rule:evenodd;font-size:12px;overflow:visible;stroke-linecap:square;stroke-miterlimit:3}
	]]>
	</style>

	<defs id="Patterns_And_Gradients">
		<linearGradient id="grad0-22" x1="0" y1="0" x2="1" y2="0" gradientTransform="rotate(90 0.5 0.5)">
			<stop offset="0" stop-color="#fff2cc" stop-opacity="1"/>
			<stop offset="0.53" stop-color="#ffd965" stop-opacity="1"/>
			<stop offset="1" stop-color="#bf9000" stop-opacity="1"/>
		</linearGradient>
	</defs>
	<g>
		<title>页-1</title>
		<g id="group1061-1" transform="translate(893.288,-0.375)">
			<title>工作表.1061</title>
			<g id="shape1031-2">
				<title>矩形.1031</title>
				<rect x="0" y="1153.11" width="850.394" height="28.3465" class="st1"/>
			</g>
			<g id="shape1032-4" transform="translate(162.992,-28.3465)">
				<title>矩形.1032</title>
				<rect x="0" y="756.262" width="14.1732" height="425.197" class="st2"/>
			</g>
			<g id="shape1033-6" transform="translate(418.11,-28.3465)">
				<title>矩形.1033</title>
				<rect x="0" y="756.262" width="14.1732" height="425.197" class="st2"/>
			</g>
			<g id="shape1034-8" transform="translate(673.228,-28.3465)">
				<title>矩形.1034</title>
				<rect x="0" y="756.262" width="14.1732" height="425.197" class="st2"/>
			</g>
			<g id="shape1037-10" transform="translate(128.976,-447.874)">
				<title>工作表.1037</title>
				<desc>A</desc>
				<rect x="0" y="1124.77" width="82.2047" height="56.6929" class="st3"/>
				<text x="27.22" y="1167.51" class="st4">A</text>			</g>
			<g id="shape1038-13" transform="translate(384.094,-447.874)">
				<title>工作表.1038</title>
				<desc>B</desc>
				<rect x="0" y="1124.77" width="82.2047" height="56.6929" class="st3"/>
				<text x="28.05" y="1167.51" class="st4">B</text>			</g>
			<g id="shape1039-16" transform="translate(639.213,-447.874)">
				<title>工作表.1039</title>
				<desc>C</desc>
				<rect x="0" y="1124.77" width="82.2047" height="56.6929" class="st3"/>
				<text x="28.31" y="1167.51" class="st4">C</text>			</g>
			<g id="shape1055-19" transform="translate(566.929,-28.3465)">
				<title>圆角矩形.1055</title>
				<path d="M17.01 1181.46 L209.76 1181.46 A17.0076 17.0076 -180 0 0 226.77 1164.45 A17.0076 17.0076 -180 0 0 209.76
							 1147.44 L17.01 1147.44 A17.0076 17.0076 -180 0 0 0 1164.45 A17.0076 17.0076 -180 0 0 17.01 1181.46 Z"
						class="st5"/>
			</g>
			<g id="group1057-23" transform="translate(581.102,-62.3622)">
				<title>工作表.1057</title>
				<g id="shape1058-24">
					<title>圆角矩形.1016</title>
					<path d="M17.01 1181.46 L181.42 1181.46 A17.0076 17.0076 -180 0 0 198.43 1164.45 A17.0076 17.0076 -180 0 0 181.42
								 1147.44 L17.01 1147.44 A17.0076 17.0076 -180 0 0 0 1164.45 A17.0076 17.0076 -180 0 0 17.01 1181.46
								 Z" class="st5"/>
				</g>
				<g id="shape1059-27" transform="translate(14.1732,-34.0158)">
					<title>圆角矩形.1042</title>
					<path d="M17.01 1181.46 L153.07 1181.46 A17.0076 17.0076 -180 0 0 170.08 1164.45 A17.0076 17.0076 -180 0 0 153.07
								 1147.44 L17.01 1147.44 A17.0076 17.0076 -180 0 0 0 1164.45 A17.0076 17.0076 -180 0 0 17.01 1181.46
								 Z" class="st5"/>
				</g>
			</g>
		</g>
		<g id="shape1062-30" transform="translate(921.635,1445.53) rotate(180)">
			<title>普通箭头.1062</title>
			<desc>操作0</desc>
			<path d="M0 1181.46 L36.85 1153.11 L36.85 1167.29 L99.21 1167.29 L99.21 1181.46 L99.21 1195.63 L36.85 1195.63 L36.85
						 1209.8 L0 1181.46 Z" class="st6"/>
			<text x="-80.27" y="-1174.26" transform="rotate(180)" class="st7">操作0</text>		</g>
		<g id="shape1063-33" transform="translate(921.635,2121.6) rotate(180)">
			<title>普通箭头.1063</title>
			<desc>操作1</desc>
			<path d="M0 1181.46 L36.85 1153.11 L36.85 1167.29 L99.21 1167.29 L99.21 1181.46 L99.21 1195.63 L36.85 1195.63 L36.85
						 1209.8 L0 1181.46 Z" class="st6"/>
			<text x="-80.27" y="-1174.26" transform="rotate(180)" class="st7">操作1</text>		</g>
		<g id="shape1064-36" transform="translate(-80.0049,-90.4735) rotate(-45)">
			<title>普通箭头.1064</title>
			<desc>Ⅱ类操作</desc>
			<path d="M0 1181.46 L36.85 1153.11 L36.85 1167.29 L255.12 1167.29 L255.12 1181.46 L255.12 1195.63 L36.85 1195.63 L36.85
						 1209.8 L0 1181.46 Z" class="st6"/>
			<text x="79.56" y="1188.66" class="st7">Ⅱ类操作</text>		</g>
		<g id="group1083-39" transform="translate(893.288,-676.438)">
			<title>工作表.1083</title>
			<g id="shape1011-40">
				<title>矩形.1011</title>
				<rect x="0" y="1153.11" width="850.394" height="28.3465" class="st1"/>
			</g>
			<g id="shape1012-42" transform="translate(162.992,-28.3465)">
				<title>矩形.1012</title>
				<rect x="0" y="756.262" width="14.1732" height="425.197" class="st2"/>
			</g>
			<g id="shape1013-44" transform="translate(418.11,-28.3465)">
				<title>矩形.1013</title>
				<rect x="0" y="756.262" width="14.1732" height="425.197" class="st2"/>
			</g>
			<g id="shape1014-46" transform="translate(673.228,-28.3465)">
				<title>矩形.1014</title>
				<rect x="0" y="756.262" width="14.1732" height="425.197" class="st2"/>
			</g>
			<g id="shape1015-48" transform="translate(56.6929,-28.3465)">
				<title>圆角矩形.1015</title>
				<path d="M17.01 1181.46 L209.76 1181.46 A17.0076 17.0076 -180 0 0 226.77 1164.45 A17.0076 17.0076 -180 0 0 209.76
							 1147.44 L17.01 1147.44 A17.0076 17.0076 -180 0 0 0 1164.45 A17.0076 17.0076 -180 0 0 17.01 1181.46 Z"
						class="st5"/>
			</g>
			<g id="shape1017-51" transform="translate(128.976,-447.874)">
				<title>工作表.1017</title>
				<desc>A</desc>
				<rect x="0" y="1124.77" width="82.2047" height="56.6929" class="st3"/>
				<text x="27.22" y="1167.51" class="st4">A</text>			</g>
			<g id="shape1018-54" transform="translate(384.094,-447.874)">
				<title>工作表.1018</title>
				<desc>B</desc>
				<rect x="0" y="1124.77" width="82.2047" height="56.6929" class="st3"/>
				<text x="28.05" y="1167.51" class="st4">B</text>			</g>
			<g id="shape1019-57" transform="translate(639.213,-447.874)">
				<title>工作表.1019</title>
				<desc>C</desc>
				<rect x="0" y="1124.77" width="82.2047" height="56.6929" class="st3"/>
				<text x="28.31" y="1167.51" class="st4">C</text>			</g>
			<g id="shape1016-60" transform="translate(325.984,-28.3465)">
				<title>圆角矩形.1016</title>
				<path d="M17.01 1181.46 L181.42 1181.46 A17.0076 17.0076 -180 0 0 198.43 1164.45 A17.0076 17.0076 -180 0 0 181.42
							 1147.44 L17.01 1147.44 A17.0076 17.0076 -180 0 0 0 1164.45 A17.0076 17.0076 -180 0 0 17.01 1181.46 Z"
						class="st5"/>
			</g>
			<g id="shape1042-63" transform="translate(340.157,-62.3622)">
				<title>圆角矩形.1042</title>
				<path d="M17.01 1181.46 L153.07 1181.46 A17.0076 17.0076 -180 0 0 170.08 1164.45 A17.0076 17.0076 -180 0 0 153.07
							 1147.44 L17.01 1147.44 A17.0076 17.0076 -180 0 0 0 1164.45 A17.0076 17.0076 -180 0 0 17.01 1181.46 Z"
						class="st5"/>
			</g>
		</g>
		<g id="group1208-66" transform="translate(0.375,-676.438)">
			<title>工作表.1208</title>
			<g id="shape1000-67">
				<title>矩形.1000</title>
				<rect x="0" y="1153.11" width="850.394" height="28.3465" class="st1"/>
			</g>
			<g id="shape1001-69" transform="translate(162.992,-28.3465)">
				<title>矩形.1001</title>
				<rect x="0" y="756.262" width="14.1732" height="425.197" class="st2"/>
			</g>
			<g id="shape1002-71" transform="translate(418.11,-28.3465)">
				<title>矩形.1002</title>
				<rect x="0" y="756.262" width="14.1732" height="425.197" class="st2"/>
			</g>
			<g id="shape1003-73" transform="translate(673.228,-28.3465)">
				<title>矩形.1003</title>
				<rect x="0" y="756.262" width="14.1732" height="425.197" class="st2"/>
			</g>
			<g id="shape1004-75" transform="translate(56.6929,-28.3465)">
				<title>圆角矩形.1004</title>
				<path d="M17.01 1181.46 L209.76 1181.46 A17.0076 17.0076 -180 0 0 226.77 1164.45 A17.0076 17.0076 -180 0 0 209.76
							 1147.44 L17.01 1147.44 A17.0076 17.0076 -180 0 0 0 1164.45 A17.0076 17.0076 -180 0 0 17.01 1181.46 Z"
						class="st5"/>
			</g>
			<g id="shape1006-78" transform="translate(128.976,-447.874)">
				<title>工作表.1006</title>
				<desc>A</desc>
				<rect x="0" y="1124.77" width="82.2047" height="56.6929" class="st3"/>
				<text x="27.22" y="1167.51" class="st4">A</text>			</g>
			<g id="shape1007-81" transform="translate(384.094,-447.874)">
				<title>工作表.1007</title>
				<desc>B</desc>
				<rect x="0" y="1124.77" width="82.2047" height="56.6929" class="st3"/>
				<text x="28.05" y="1167.51" class="st4">B</text>			</g>
			<g id="shape1008-84" transform="translate(639.213,-447.874)">
				<title>工作表.1008</title>
				<desc>C</desc>
				<rect x="0" y="1124.77" width="82.2047" height="56.6929" class="st3"/>
				<text x="28.31" y="1167.51" class="st4">C</text>			</g>
			<g id="shape1206-87" transform="translate(70.8662,-62.3622)">
				<title>圆角矩形.1206</title>
				<path d="M17.01 1181.46 L181.42 1181.46 A17.0076 17.0076 -180 0 0 198.43 1164.45 A17.0076 17.0076 -180 0 0 181.42
							 1147.44 L17.01 1147.44 A17.0076 17.0076 -180 0 0 0 1164.45 A17.0076 17.0076 -180 0 0 17.01 1181.46 Z"
						class="st5"/>
			</g>
			<g id="shape1207-90" transform="translate(85.0394,-96.378)">
				<title>圆角矩形.1042</title>
				<path d="M17.01 1181.46 L153.07 1181.46 A17.0076 17.0076 -180 0 0 170.08 1164.45 A17.0076 17.0076 -180 0 0 153.07
							 1147.44 L17.01 1147.44 A17.0076 17.0076 -180 0 0 0 1164.45 A17.0076 17.0076 -180 0 0 17.01 1181.46 Z"
						class="st5"/>
			</g>
		</g>
		<g id="group1209-93" transform="translate(0.375,-0.375)">
			<title>工作表.1209</title>
			<g id="shape1044-94">
				<title>矩形.1044</title>
				<rect x="0" y="1153.11" width="850.394" height="28.3465" class="st1"/>
			</g>
			<g id="shape1045-96" transform="translate(162.992,-28.3465)">
				<title>矩形.1045</title>
				<rect x="0" y="756.262" width="14.1732" height="425.197" class="st2"/>
			</g>
			<g id="shape1046-98" transform="translate(418.11,-28.3465)">
				<title>矩形.1046</title>
				<rect x="0" y="756.262" width="14.1732" height="425.197" class="st2"/>
			</g>
			<g id="shape1047-100" transform="translate(673.228,-28.3465)">
				<title>矩形.1047</title>
				<rect x="0" y="756.262" width="14.1732" height="425.197" class="st2"/>
			</g>
			<g id="shape1048-102" transform="translate(566.929,-28.3465)">
				<title>圆角矩形.1048</title>
				<path d="M17.01 1181.46 L209.76 1181.46 A17.0076 17.0076 -180 0 0 226.77 1164.45 A17.0076 17.0076 -180 0 0 209.76
							 1147.44 L17.01 1147.44 A17.0076 17.0076 -180 0 0 0 1164.45 A17.0076 17.0076 -180 0 0 17.01 1181.46 Z"
						class="st5"/>
			</g>
			<g id="shape1049-105" transform="translate(128.976,-447.874)">
				<title>工作表.1049</title>
				<desc>A</desc>
				<rect x="0" y="1124.77" width="82.2047" height="56.6929" class="st3"/>
				<text x="27.22" y="1167.51" class="st4">A</text>			</g>
			<g id="shape1050-108" transform="translate(384.094,-447.874)">
				<title>工作表.1050</title>
				<desc>B</desc>
				<rect x="0" y="1124.77" width="82.2047" height="56.6929" class="st3"/>
				<text x="28.05" y="1167.51" class="st4">B</text>			</g>
			<g id="shape1051-111" transform="translate(639.213,-447.874)">
				<title>工作表.1051</title>
				<desc>C</desc>
				<rect x="0" y="1124.77" width="82.2047" height="56.6929" class="st3"/>
				<text x="28.31" y="1167.51" class="st4">C</text>			</g>
			<g id="shape1053-114" transform="translate(325.984,-28.3465)">
				<title>圆角矩形.1053</title>
				<path d="M17.01 1181.46 L181.42 1181.46 A17.0076 17.0076 -180 0 0 198.43 1164.45 A17.0076 17.0076 -180 0 0 181.42
							 1147.44 L17.01 1147.44 A17.0076 17.0076 -180 0 0 0 1164.45 A17.0076 17.0076 -180 0 0 17.01 1181.46 Z"
						class="st5"/>
			</g>
			<g id="shape1054-117" transform="translate(340.157,-62.3622)">
				<title>圆角矩形.1054</title>
				<path d="M17.01 1181.46 L153.07 1181.46 A17.0076 17.0076 -180 0 0 170.08 1164.45 A17.0076 17.0076 -180 0 0 153.07
							 1147.44 L17.01 1147.44 A17.0076 17.0076 -180 0 0 0 1164.45 A17.0076 17.0076 -180 0 0 17.01 1181.46 Z"
						class="st5"/>
			</g>
		</g>
	</g>
</svg>
